…
# Part4: regularization

``` r
library(readxl)
Data<-read_excel('F:\\courses\\STAT\\8330 data analysis 3\\project3\\github\\STAT8330-Final-Project\\Final_Project_4C.xlsx')
Data
```

    ## # A tibble: 8,420 x 7
    ##    NA_Section Pacific_Section Month  Year Season Average_Prec Average_SST
    ##         <dbl>           <dbl> <dbl> <dbl>  <dbl>        <dbl>       <dbl>
    ##  1          1               1     1     1      4         1.61     -0.335 
    ##  2          1               1     2     1      4         1.30     -0.660 
    ##  3          1               1     3     1      1         1.52     -0.478 
    ##  4          1               1     4     1      1         1.54     -0.295 
    ##  5          1               1     5     1      1         1.91     -0.0824
    ##  6          1               1     6     1      2         2.01     -0.398 
    ##  7          1               1     7     1      2         3.03     -0.475 
    ##  8          1               1     8     1      2         2.65     -0.313 
    ##  9          1               1     9     1      3         4.43     -0.385 
    ## 10          1               1    10     1      3         2.32     -0.198 
    ## # ... with 8,410 more rows

``` r
Data2 <- read_excel('F:\\courses\\STAT\\8330 data analysis 3\\project3\\github\\STAT8330-Final-Project\\Final_Project_Section_Split.xlsx')
Data2
```

    ## # A tibble: 8,420 x 25
    ##    Average_Prec Average_SST Month  Year Season  NA_1   P_1  NA_2   P_2  NA_3
    ##           <dbl>       <dbl> <dbl> <dbl>  <dbl> <dbl> <dbl> <dbl> <dbl> <dbl>
    ##  1         1.61     -0.335      1     1      4     1     1     0     0     0
    ##  2         1.30     -0.660      2     1      4     1     1     0     0     0
    ##  3         1.52     -0.478      3     1      1     1     1     0     0     0
    ##  4         1.54     -0.295      4     1      1     1     1     0     0     0
    ##  5         1.91     -0.0824     5     1      1     1     1     0     0     0
    ##  6         2.01     -0.398      6     1      2     1     1     0     0     0
    ##  7         3.03     -0.475      7     1      2     1     1     0     0     0
    ##  8         2.65     -0.313      8     1      2     1     1     0     0     0
    ##  9         4.43     -0.385      9     1      3     1     1     0     0     0
    ## 10         2.32     -0.198     10     1      3     1     1     0     0     0
    ## # ... with 8,410 more rows, and 15 more variables: P_3 <dbl>, NA_4 <dbl>,
    ## #   P_4 <dbl>, NA_5 <dbl>, P_5 <dbl>, NA_6 <dbl>, P_6 <dbl>, NA_7 <dbl>,
    ## #   P_7 <dbl>, NA_8 <dbl>, P_8 <dbl>, NA_9 <dbl>, P_9 <dbl>, NA_10 <dbl>,
    ## #   P_10 <dbl>
…
``` r
Reduced_Data <- Data2[, -which(names(Data2) %in% c('P_1', 'P_5', 'P_6'))]
Reduced_Data
```

    ## # A tibble: 8,420 x 23
    ##    Average_Prec Average_SST Month Year  Season NA_1  NA_2  P_2   NA_3  P_3  
    ##           <dbl>       <dbl> <fct> <fct> <fct>  <fct> <fct> <fct> <fct> <fct>
    ##  1            1     -0.335  1     1     4      1     0     0     0     0    
    ##  2            1     -0.660  2     1     4      1     0     0     0     0    
    ##  3            1     -0.478  3     1     1      1     0     0     0     0    
    ##  4            1     -0.295  4     1     1      1     0     0     0     0    
    ##  5            2     -0.0824 5     1     1      1     0     0     0     0    
    ##  6            2     -0.398  6     1     2      1     0     0     0     0    
    ##  7            4     -0.475  7     1     2      1     0     0     0     0    
    ##  8            4     -0.313  8     1     2      1     0     0     0     0    
    ##  9            4     -0.385  9     1     3      1     0     0     0     0    
    ## 10            3     -0.198  10    1     3      1     0     0     0     0    
    ## # ... with 8,410 more rows, and 13 more variables: NA_4 <fct>, P_4 <fct>,
    ## #   NA_5 <fct>, NA_6 <fct>, NA_7 <fct>, P_7 <fct>, NA_8 <fct>, P_8 <fct>,
    ## #   NA_9 <fct>, P_9 <fct>, NA_10 <fct>, P_10 <fct>, Pacific_Section <fct>
